{
  "anecdotes": [
    {
      "content": "If it hurts, do it more often",
      "votes": 8,
      "id": "47145"
    },
    {
      "votes": null,
      "id": "21149"
    },
    {
      "votes": null,
      "id": "69581"
    },
    {
      "content": "Any fool can write code that a computer can understand. Good programmers write code that humans can understand.",
      "votes": 6,
      "id": "36975"
    },
    {
      "votes": null,
      "id": "25170"
    },
    {
      "content": "Debugging is twice as hard as writing the code in the first place. Therefore, if you write the code as cleverly as possible, you are, by definition, not smart enough to debug it.",
      "votes": 6,
      "id": "98312"
    },
    {
      "content": "Works on my machine",
      "votes": 8,
      "id": "RUMKHpB"
    },
    {
      "votes": null,
      "id": "I6Jr1XY"
    },
    {
      "votes": null,
      "id": "vooLLzm"
    }
  ]
}